<?xml version="1.0" encoding="utf-8"?>
<!-- Generator: Adobe Illustrator 23.0.2, SVG Export Plug-In . SVG Version: 6.00 Build 0)  -->
<svg version="1.1" id="Layer_1" xmlns="http://www.w3.org/2000/svg" xmlns:xlink="http://www.w3.org/1999/xlink" x="0px" y="0px"
	 viewBox="0 0 60 60" style="enable-background:new 0 0 60 60;" xml:space="preserve">
<style type="text/css">
	.st0{fill:#4268B1;}
</style>
<g>
	<g>
		<g>
			<path class="st0" d="M30,60c-8.28,0-15.78-3.36-21.21-8.79l0,0C3.36,45.78,0,38.29,0,30l0,0c0-8.28,3.36-15.78,8.79-21.22l0,0
				C14.22,3.36,21.72,0,30,0l0,0c8.29,0,15.78,3.36,21.21,8.78l0,0C56.64,14.22,60,21.72,60,30l0,0c0,8.29-3.36,15.78-8.79,21.21
				l0,0C45.78,56.64,38.29,60,30,60L30,60C30,60,30,60,30,60L30,60z M9.81,50.18c5.17,5.17,12.3,8.36,20.18,8.36l0,0
				c7.89,0,15.01-3.19,20.18-8.36l0,0c5.17-5.17,8.36-12.29,8.36-20.18l0,0c0-7.89-3.19-15.01-8.36-20.18l0,0
				C45.01,4.65,37.89,1.45,30,1.45l0,0c-7.89,0-15.01,3.19-20.18,8.36l0,0C4.65,14.99,1.45,22.11,1.45,30l0,0
				C1.45,37.89,4.65,45.01,9.81,50.18L9.81,50.18z"/>
		</g>
	</g>
</g>
<path class="st0" d="M41.68,20.9c0.81-0.66,2.7-2.43,2.9-4.48c0.09-0.96-0.19-1.86-0.82-2.61c-0.88-1.07-1.91-1.3-2.61-1.3
	c-0.76,0-1.44,0.26-1.96,0.55c-0.47-0.29-1.07-0.52-1.79-0.52c-0.65,0-1.64,0.21-2.62,1.22c-2.56,2.64,0.39,5.7,1.36,6.71
	c0.1,0.11,0.19,0.2,0.26,0.27c0.41,0.46,0.88,1,1.21,1.38c-0.52,0.26-0.94,0.69-1.19,1.21L31.39,20c-1.24-0.82-1.48-0.91-1.9-0.91
	c-0.43,0-0.69,0.11-1.9,0.9l-10.94,7.24c-1.21,0.8-1.61,2.36-0.88,3.46c0.43,0.64,1.17,1.03,1.98,1.03c0.24,0,0.48-0.04,0.71-0.1
	v10.2c0,1.06,0.86,1.92,1.92,1.92h3.83c1.06,0,1.92-0.86,1.92-1.92v-6.46c0-0.26,0.22-0.48,0.48-0.48h6.15
	c0.26,0,0.48,0.22,0.48,0.48v6.46c0,1.06,0.86,1.92,1.92,1.92H39c1.06,0,1.92-0.86,1.92-1.92v-9.92c0.22,0.06,0.45,0.09,0.68,0.09
	c0.81,0,1.56-0.38,1.98-1.02c0.33-0.5,0.45-1.11,0.32-1.73c-0.14-0.69-0.58-1.32-1.2-1.74L42,27.04c-0.14-0.1-0.35-0.49-0.35-0.66
	v-1.9c0-0.94-0.49-1.76-1.23-2.23C40.61,21.98,41.05,21.42,41.68,20.9z M39.48,41.82c0,0.26-0.22,0.48-0.48,0.48h-3.83
	c-0.26,0-0.48-0.22-0.48-0.48v-6.46c0-1.06-0.86-1.92-1.92-1.92h-6.15c-1.06,0-1.92,0.86-1.92,1.92v6.46c0,0.26-0.22,0.48-0.48,0.48
	h-3.83c-0.26,0-0.48-0.22-0.48-0.48V30.84l9.37-6.2c0.01,0,0.09-0.03,0.21-0.03c0.12,0,0.19,0.03,0.21,0.04l9.78,6.49V41.82z
	 M41.2,28.24l0.72,0.47c0.55,0.37,0.76,1.02,0.47,1.47c-0.16,0.25-0.45,0.38-0.78,0.38c-0.25,0-0.51-0.08-0.75-0.24l-10.36-6.88
	c-0.28-0.18-0.64-0.27-1-0.27c-0.36,0-0.73,0.09-1,0.27l-9.98,6.6c-0.24,0.16-0.51,0.24-0.75,0.24c-0.32,0-0.61-0.13-0.78-0.38
	c-0.29-0.44-0.08-1.1,0.47-1.47l10.94-7.23c0.55-0.36,1.05-0.66,1.11-0.66c0.06,0,0.55,0.3,1.11,0.66l6,3.98
	c0.17,0.12,0.34,0.17,0.48,0.17c0.31,0,0.52-0.26,0.52-0.71v-0.17c0-0.66,0.54-1.2,1.2-1.2H39c0.66,0,1.2,0.54,1.2,1.2v1.9
	C40.21,27.03,40.65,27.87,41.2,28.24z M39.09,21.63c-0.05-0.05-0.93-1.07-1.61-1.84c-0.69-0.77-3.44-3.17-1.66-5.02
	c0.57-0.58,1.11-0.78,1.58-0.78h0c1.01,0,1.68,0.87,1.72,0.91c0.05-0.05,0.94-0.95,2.03-0.95c0.5,0,1.02,0.2,1.5,0.78
	c1.53,1.84-0.85,4.2-1.89,5.06C39.72,20.64,39.12,21.58,39.09,21.63z"/>
</svg>
