<?xml version="1.0" encoding="utf-8"?>
<!-- Generator: Adobe Illustrator 23.0.2, SVG Export Plug-In . SVG Version: 6.00 Build 0)  -->
<svg version="1.1" id="Layer_1" xmlns="http://www.w3.org/2000/svg" xmlns:xlink="http://www.w3.org/1999/xlink" x="0px" y="0px"
	 viewBox="0 0 60 60" style="enable-background:new 0 0 60 60;" xml:space="preserve">
<style type="text/css">
	.st0{fill:#4268B1;}
</style>
<g>
	<g>
		<g>
			<path class="st0" d="M30,60c-8.28,0-15.78-3.36-21.21-8.79l0,0C3.36,45.78,0,38.29,0,30l0,0c0-8.28,3.36-15.78,8.79-21.22l0,0
				C14.22,3.36,21.72,0,30,0l0,0c8.29,0,15.78,3.36,21.21,8.78l0,0C56.64,14.22,60,21.72,60,30l0,0c0,8.29-3.36,15.78-8.79,21.21
				l0,0C45.78,56.64,38.29,60,30,60L30,60C30,60,30,60,30,60L30,60z M9.81,50.18c5.17,5.17,12.3,8.36,20.18,8.36l0,0
				c7.89,0,15.01-3.19,20.18-8.36l0,0c5.17-5.17,8.36-12.29,8.36-20.18l0,0c0-7.89-3.19-15.01-8.36-20.18l0,0
				C45.01,4.65,37.89,1.45,30,1.45l0,0c-7.89,0-15.01,3.19-20.18,8.36l0,0C4.65,14.99,1.45,22.11,1.45,30l0,0
				C1.45,37.89,4.65,45.01,9.81,50.18L9.81,50.18z"/>
		</g>
	</g>
</g>
<g>
	<g>
		<g>
			<path class="st0" d="M12.19,40.12l0.02-1.39c0.04,0,0.06,0,0.08,0l0,0c0.47,0.03,1.36-0.42,2.51-0.95l0,0
				c1.16-0.52,2.64-1.09,4.5-1.11l0,0l0,0c0,0,0.01,0,0.01,0l0,0h0c1.91,0,3.29,0.64,4.33,1.16l0,0c1.07,0.53,1.77,0.89,2.77,0.9
				l0,0c1,0,1.78-0.37,2.86-0.9l0,0c1.06-0.52,2.4-1.15,4.21-1.16l0,0c0.03,0,0.04,0,0.05,0l0,0c0.01,0,0.01,0,0.01,0l0,0
				c1.83-0.01,3.11,0.66,4.08,1.17l0,0c1.01,0.51,1.7,0.88,3.01,0.89l0,0c0.05,0,0.08,0,0.1,0l0,0c1.27,0,2.26-0.43,3.34-0.94l0,0
				c1.07-0.49,2.21-1.07,3.67-1.12l0,0l0,0l0.04,1.38c-1.09,0.03-2.03,0.48-3.12,0.99l0,0c-1.09,0.5-2.33,1.06-3.93,1.06l0,0
				c-0.04,0-0.06,0-0.09,0l0,0c-1.61,0-2.66-0.53-3.65-1.04l0,0c-0.97-0.5-1.92-1-3.37-1.02l0,0l0,0h-0.09
				c-1.51,0-2.6,0.5-3.65,1.02l0,0c-1.06,0.51-2.09,1.04-3.47,1.04l0,0c-1.37,0-2.36-0.53-3.39-1.04l0,0
				c-1.01-0.51-2.09-1-3.67-1.02l0,0l-0.05,0c-1.59,0.02-2.85,0.49-3.95,0.98l0,0c-1.11,0.48-2.01,1.05-3.08,1.08l0,0
				C12.25,40.12,12.22,40.12,12.19,40.12L12.19,40.12z"/>
		</g>
		<g>
			<path class="st0" d="M12.19,43.85l0.02-1.39c0.05,0,0.07,0,0.08,0l0,0c0.47,0.03,1.36-0.42,2.51-0.95l0,0
				c1.16-0.52,2.64-1.09,4.5-1.11l0,0l0,0c0,0,0.01,0,0.01,0l0,0h0c1.91,0,3.29,0.64,4.33,1.17l0,0c1.07,0.53,1.77,0.89,2.78,0.89
				l0,0c1,0,1.78-0.37,2.86-0.9l0,0c1.06-0.52,2.41-1.15,4.23-1.16l0,0c0.02,0,0.03,0,0.04,0l0,0c0,0,0,0,0,0l0,0l0.01,0l0,0l0,0
				l0,0c1.83,0,3.1,0.67,4.08,1.17l0,0c1.01,0.52,1.7,0.88,3.01,0.89l0,0c0.05,0,0.08,0,0.1,0l0,0c1.27,0,2.26-0.43,3.34-0.93l0,0
				c1.07-0.5,2.21-1.08,3.67-1.12l0,0l0,0l0.04,1.39c-1.09,0.03-2.03,0.48-3.12,0.99l0,0c-1.09,0.51-2.33,1.06-3.93,1.06l0,0
				c-0.04,0-0.06,0-0.09,0l0,0c-1.61,0-2.66-0.53-3.65-1.04l0,0c-0.98-0.5-1.92-1-3.37-1.02l0,0l-0.11,0.03l-0.09-0.03
				c-1.45,0.02-2.51,0.52-3.54,1.02l0,0c-1.06,0.51-2.09,1.04-3.47,1.04l0,0c-1.37,0-2.36-0.53-3.39-1.04l0,0
				c-1.01-0.51-2.09-1-3.67-1.02l0,0h-0.05c-1.59,0.02-2.85,0.49-3.95,0.98l0,0c-1.11,0.48-2.01,1.05-3.08,1.08l0,0
				C12.24,43.85,12.21,43.85,12.19,43.85L12.19,43.85z"/>
		</g>
	</g>
	<g>
		<g>
			<path class="st0" d="M36.19,19.64c0-1.93,1.56-3.49,3.49-3.49l0,0c1.93,0,3.49,1.56,3.49,3.49l0,0c0,1.93-1.56,3.49-3.49,3.49
				l0,0C37.75,23.13,36.19,21.57,36.19,19.64L36.19,19.64z M37.57,19.64c0,1.16,0.94,2.1,2.11,2.11l0,0c1.16,0,2.1-0.94,2.11-2.11
				l0,0c0-1.17-0.94-2.11-2.11-2.11l0,0C38.52,17.53,37.57,18.48,37.57,19.64L37.57,19.64L37.57,19.64z"/>
		</g>
		<g>
			<path class="st0" d="M26.49,36.73c-0.3-0.24-0.35-0.67-0.11-0.97l0,0l8.27-10.48h-4.57l-6.84,7.73v0
				c-0.25,0.29-0.69,0.31-0.98,0.06l0,0c-0.29-0.25-0.31-0.69-0.06-0.98l0,0l7.05-7.97c0.13-0.15,0.32-0.23,0.52-0.23l0,0h6.31
				c0.26,0,0.51,0.15,0.62,0.39l0,0c0.12,0.24,0.09,0.52-0.08,0.73l0,0l-9.16,11.6c-0.14,0.17-0.34,0.27-0.54,0.27l0,0
				C26.77,36.88,26.62,36.83,26.49,36.73L26.49,36.73z"/>
		</g>
	</g>
</g>
</svg>
