<?xml version="1.0" encoding="utf-8"?>
<!-- Generator: Adobe Illustrator 23.0.4, SVG Export Plug-In . SVG Version: 6.00 Build 0)  -->
<svg version="1.1" id="Layer_1" xmlns="http://www.w3.org/2000/svg" xmlns:xlink="http://www.w3.org/1999/xlink" x="0px" y="0px"
	 viewBox="0 0 60 60" style="enable-background:new 0 0 60 60;" xml:space="preserve">
<style type="text/css">
	.st0{fill:#4268B1;}
	.st1{fill:#FFFFFF;}
</style>
<g>
	<g>
		<g>
			<circle class="st0" cx="30" cy="30" r="30"/>
		</g>
	</g>
</g>
<path class="st1" d="M31.9,24.9l-0.6-0.9l-0.6,0.9c0,0-1.5,2.3-3.1,5.1c-1.5,2.9-3.1,6.3-3.1,8.9c0,2.6,1,4.4,2.4,5.4s3,1.5,4.4,1.5
	c1.3,0,3.1-0.4,4.5-1.5c1.5-1.1,2.6-2.9,2.6-5.4c0-2.6-1.7-6-3.3-8.9C33.5,27.2,32,24.9,31.9,24.9z M35,43.2
	c-1.1,0.8-2.6,1.2-3.6,1.2c-1,0-2.4-0.3-3.5-1.2c-1-0.8-1.9-2.1-1.9-4.3c0-2.1,1.5-5.5,3-8.2c0.9-1.7,1.8-3.2,2.4-4.1
	c0.6,0.9,1.6,2.4,2.5,4.1C35.5,33.5,37,37,37,39C37,41.1,36.1,42.4,35,43.2z M19.8,21.8l-0.6-0.9l-0.6,0.9c0,0-1.1,1.6-2.2,3.7
	c-1.1,2.1-2.2,4.5-2.3,6.5c0,1.9,0.8,3.3,1.8,4.1c1,0.8,2.3,1.1,3.3,1.1c1,0,2.3-0.3,3.4-1.1c1.1-0.8,2-2.2,1.9-4.1
	c0-2-1.2-4.4-2.4-6.5C21,23.4,19.8,21.8,19.8,21.8z M21.7,34.8c-0.8,0.6-1.8,0.8-2.5,0.8c-0.7,0-1.6-0.2-2.4-0.8
	c-0.7-0.6-1.2-1.4-1.2-2.9c0-1.4,1-3.8,2.1-5.8c0.6-1,1.1-2,1.5-2.6c0.4,0.6,1,1.6,1.6,2.6c1.1,2,2.2,4.4,2.2,5.8
	C23,33.4,22.4,34.2,21.7,34.8z M43.8,19c-0.5-0.9-1-1.7-1.3-2.2c-0.2-0.3-0.3-0.5-0.5-0.7c0-0.1-0.1-0.1-0.1-0.2l0,0l0,0l-1.2-1.7
	l-1.2,1.7c0,0-1,1.4-1.9,3.1c-0.9,1.8-1.9,3.8-2,5.8c0,0,0,0.1,0,0.1c0,1.8,0.8,3.2,1.8,4l0,0c1,0.8,2.2,1.1,3.2,1.1
	c1,0,2.2-0.3,3.3-1.1c1.1-0.8,2-2.2,2-4c0,0,0,0,0,0C45.9,22.8,44.8,20.7,43.8,19z M44.5,24.8c0,1.3-0.6,2.3-1.3,2.8
	c-0.8,0.6-1.7,0.8-2.4,0.8c-0.7,0-1.6-0.2-2.3-0.8l0,0c-0.7-0.5-1.3-1.5-1.3-2.9v0c0-1.4,0.9-3.4,1.8-5.1c0.9-1.6,1.7-2.9,1.8-3l0,0
	l0,0c0.1,0.1,1,1.4,1.9,3C43.5,21.4,44.5,23.3,44.5,24.8C44.5,24.8,44.5,24.8,44.5,24.8z"/>
</svg>
