<?xml version="1.0" encoding="utf-8"?>
<!-- Generator: Adobe Illustrator 23.0.2, SVG Export Plug-In . SVG Version: 6.00 Build 0)  -->
<svg version="1.1" id="Layer_1" xmlns="http://www.w3.org/2000/svg" xmlns:xlink="http://www.w3.org/1999/xlink" x="0px" y="0px"
	 viewBox="0 0 60 60" style="enable-background:new 0 0 60 60;" xml:space="preserve">
<style type="text/css">
	.st0{fill:#4268B1;}
</style>
<g>
	<g>
		<g>
			<path class="st0" d="M30,60c-8.28,0-15.78-3.36-21.21-8.79l0,0C3.36,45.78,0,38.29,0,30l0,0c0-8.28,3.36-15.78,8.79-21.22l0,0
				C14.22,3.36,21.72,0,30,0l0,0c8.29,0,15.78,3.36,21.21,8.78l0,0C56.64,14.22,60,21.72,60,30l0,0c0,8.29-3.36,15.78-8.79,21.21
				l0,0C45.78,56.64,38.29,60,30,60L30,60C30,60,30,60,30,60L30,60z M9.81,50.18c5.17,5.17,12.3,8.36,20.18,8.36l0,0
				c7.89,0,15.01-3.19,20.18-8.36l0,0c5.17-5.17,8.36-12.29,8.36-20.18l0,0c0-7.89-3.19-15.01-8.36-20.18l0,0
				C45.01,4.65,37.89,1.45,30,1.45l0,0c-7.89,0-15.01,3.19-20.18,8.36l0,0C4.65,14.99,1.45,22.11,1.45,30l0,0
				C1.45,37.89,4.65,45.01,9.81,50.18L9.81,50.18z"/>
		</g>
	</g>
</g>
<g>
	<path class="st0" d="M34.65,31.43c0.9-0.47,1.72-1.07,2.47-1.8c0,0,0.01-0.01,0.01-0.01l0,0c0,0,0,0,0,0
		c0.01-0.01,0.01-0.01,0.02-0.02c0.94-0.95,1.68-2.05,2.18-3.27c0.51-1.22,0.77-2.52,0.77-3.86c0-1.33-0.26-2.63-0.77-3.86
		c-0.51-1.22-1.24-2.32-2.2-3.29c-0.95-0.95-2.05-1.68-3.28-2.19c-2.44-1.02-5.26-1.02-7.71,0c-1.22,0.51-2.32,1.24-3.27,2.18
		c-0.01,0.01-0.02,0.02-0.03,0.03c-0.94,0.95-1.67,2.05-2.18,3.26c-0.51,1.23-0.77,2.52-0.77,3.86c0,1.33,0.26,2.63,0.77,3.86
		c0.5,1.22,1.23,2.31,2.2,3.29c0.73,0.73,1.56,1.34,2.48,1.82c0.71,0.37,1.46,0.66,2.23,0.85v4.58h-4.87c-0.44,0-0.8,0.36-0.8,0.8
		v3.23c0,0.44,0.36,0.8,0.8,0.8h4.87v5.13c0,0.44,0.36,0.8,0.8,0.8h3.23c0.44,0,0.8-0.36,0.8-0.8V41.7h4.87c0.44,0,0.8-0.36,0.8-0.8
		v-3.23c0-0.44-0.36-0.8-0.8-0.8h-4.87v-4.58C33.19,32.08,33.94,31.8,34.65,31.43z M30.81,40.89v5.13h-1.63v-5.13
		c0-0.44-0.36-0.8-0.8-0.8h-4.87v-1.63h4.87c0.44,0,0.8-0.36,0.8-0.8v-6.04c0-0.4-0.3-0.74-0.67-0.79
		c-0.85-0.15-1.67-0.43-2.43-0.82c-0.74-0.39-1.43-0.89-2.04-1.49c-0.02-0.03-0.04-0.05-0.07-0.07c-0.79-0.79-1.4-1.72-1.83-2.74
		c-0.43-1.03-0.64-2.12-0.64-3.24c0-1.12,0.22-2.21,0.64-3.24c0.43-1.04,1.05-1.96,1.77-2.7c0.03-0.02,0.07-0.06,0.1-0.08
		c0.79-0.79,1.71-1.4,2.74-1.83c2.06-0.85,4.43-0.85,6.49,0c1.03,0.43,1.96,1.04,2.76,1.84l0,0c0.01,0.01,0.02,0.02,0.02,0.02
		c0.79,0.8,1.41,1.72,1.83,2.75c0.43,1.03,0.64,2.12,0.64,3.24c0,1.12-0.22,2.21-0.64,3.24c-0.43,1.04-1.05,1.97-1.86,2.77
		c-0.61,0.61-1.31,1.12-2.08,1.53c-0.77,0.4-1.59,0.68-2.44,0.83c-0.39,0.07-0.66,0.4-0.66,0.79v6.04c0,0.44,0.36,0.8,0.8,0.8h4.87
		v1.63h-4.87C31.18,40.09,30.81,40.45,30.81,40.89z"/>
	<path class="st0" d="M34.51,26.93c0.58-0.59,1.04-1.27,1.35-2.04c0.32-0.77,0.48-1.58,0.48-2.43c0-0.84-0.16-1.66-0.48-2.43
		c-0.32-0.78-0.79-1.47-1.38-2.06c-0.59-0.59-1.29-1.06-2.06-1.38c-1.53-0.63-3.32-0.63-4.86,0c-0.77,0.32-1.46,0.78-2.06,1.38
		c-0.59,0.59-1.05,1.28-1.37,2.06c-0.32,0.77-0.48,1.59-0.48,2.43c0,0.84,0.16,1.66,0.48,2.43c0.32,0.78,0.78,1.47,1.38,2.06
		l0.02,0.02c0,0,0,0,0,0c0.59,0.58,1.27,1.04,2.04,1.35c0.77,0.32,1.58,0.48,2.43,0.48c0.84,0,1.66-0.16,2.43-0.48
		C33.2,28.01,33.89,27.55,34.51,26.93z M28.07,27.13c-0.61-0.25-1.15-0.61-1.62-1.08l-0.46,0.46l0.43-0.48
		c-0.47-0.47-0.83-1.02-1.09-1.63c-0.25-0.61-0.38-1.26-0.38-1.93c0-0.67,0.13-1.33,0.38-1.93c0.25-0.61,0.62-1.16,1.1-1.64
		c0.47-0.47,1.02-0.84,1.63-1.09c1.22-0.5,2.65-0.5,3.87,0c0.61,0.25,1.16,0.62,1.64,1.1c0.47,0.46,0.83,1.01,1.09,1.63
		c0.25,0.61,0.38,1.26,0.38,1.94c0,0.67-0.13,1.32-0.38,1.93c-0.25,0.61-0.61,1.15-1.1,1.64c-0.47,0.47-1.02,0.84-1.63,1.09
		C30.72,27.64,29.28,27.64,28.07,27.13z"/>
</g>
</svg>
