<?xml version="1.0" encoding="utf-8"?>
<!-- Generator: Adobe Illustrator 23.0.2, SVG Export Plug-In . SVG Version: 6.00 Build 0)  -->
<svg version="1.1" id="Layer_1" xmlns="http://www.w3.org/2000/svg" xmlns:xlink="http://www.w3.org/1999/xlink" x="0px" y="0px"
	 viewBox="0 0 60 60" style="enable-background:new 0 0 60 60;" xml:space="preserve">
<style type="text/css">
	.st0{fill:#4268B1;}
</style>
<g>
	<g>
		<g>
			<path class="st0" d="M30,60c-8.28,0-15.78-3.36-21.21-8.79l0,0C3.36,45.78,0,38.29,0,30l0,0c0-8.28,3.36-15.78,8.79-21.22l0,0
				C14.22,3.36,21.72,0,30,0l0,0c8.29,0,15.78,3.36,21.21,8.78l0,0C56.64,14.22,60,21.72,60,30l0,0c0,8.29-3.36,15.78-8.79,21.21
				l0,0C45.78,56.64,38.29,60,30,60L30,60C30,60,30,60,30,60L30,60z M9.81,50.18c5.17,5.17,12.3,8.36,20.18,8.36l0,0
				c7.89,0,15.01-3.19,20.18-8.36l0,0c5.17-5.17,8.36-12.29,8.36-20.18l0,0c0-7.89-3.19-15.01-8.36-20.18l0,0
				C45.01,4.65,37.89,1.45,30,1.45l0,0c-7.89,0-15.01,3.19-20.18,8.36l0,0C4.65,14.99,1.45,22.11,1.45,30l0,0
				C1.45,37.89,4.65,45.01,9.81,50.18L9.81,50.18z"/>
		</g>
	</g>
</g>
<g>
	<polygon class="st0" points="25.65,37.37 28.62,36.57 28.26,35.25 26.62,35.69 26.18,34.05 24.86,34.4 	"/>
	<polygon class="st0" points="32.83,23.56 32.34,24.42 33.52,25.11 34.01,24.25 34.87,24.74 35.56,23.56 34.7,23.06 35.19,22.21 
		34.01,21.52 33.52,22.38 32.66,21.89 31.97,23.07 	"/>
	<path class="st0" d="M41.56,13.78c-0.53-1.49-1.87-2.27-3.44-1.98c-0.91,0.17-1.71,0.65-2.22,1.03c-2.58,1.91-5.77,5.96-8.75,11.13
		c-3.01,5.22-5.08,10.42-5.28,13.25l-0.03,0.42l0.96,0.55l-4.63,8.02l3.55,2.05l4.63-8.02l0.96,0.55l0.35-0.24
		c2.35-1.59,5.82-5.98,8.84-11.2c2.99-5.16,4.91-9.95,5.27-13.15C41.85,15.59,41.87,14.65,41.56,13.78z M25.18,39.56l-3.95,6.84
		l-1.2-0.69l3.95-6.84L25.18,39.56z M34.83,29.53c-2.64,4.42-5.53,8.1-7.58,9.65l-3.97-2.29c0.32-2.55,2.06-6.89,4.57-11.39
		L34.83,29.53z M38.64,22.1c-0.82,1.95-1.89,4.11-3.12,6.26l-7-4.04c1.24-2.13,2.57-4.14,3.86-5.83L38.64,22.1z M40.42,16.06
		c-0.15,1.3-0.57,2.9-1.28,4.75l-5.91-3.41c1.26-1.53,2.43-2.71,3.48-3.48c0.39-0.29,1-0.66,1.65-0.78c0.91-0.16,1.6,0.23,1.9,1.1
		C40.5,14.86,40.48,15.58,40.42,16.06z"/>
</g>
</svg>
