<?xml version="1.0" encoding="utf-8"?>
<!-- Generator: Adobe Illustrator 23.0.2, SVG Export Plug-In . SVG Version: 6.00 Build 0)  -->
<svg version="1.1" id="Layer_1" xmlns="http://www.w3.org/2000/svg" xmlns:xlink="http://www.w3.org/1999/xlink" x="0px" y="0px"
	 viewBox="0 0 60 60" style="enable-background:new 0 0 60 60;" xml:space="preserve">
<style type="text/css">
	.st0{fill:#4268B1;}
</style>
<g>
	<g>
		<g>
			<path class="st0" d="M30,60c-8.28,0-15.78-3.36-21.21-8.79l0,0C3.36,45.78,0,38.29,0,30l0,0c0-8.28,3.36-15.78,8.79-21.22l0,0
				C14.22,3.36,21.72,0,30,0l0,0c8.29,0,15.78,3.36,21.21,8.78l0,0C56.64,14.22,60,21.72,60,30l0,0c0,8.29-3.36,15.78-8.79,21.21
				l0,0C45.78,56.64,38.29,60,30,60L30,60C30,60,30,60,30,60L30,60z M9.81,50.18c5.17,5.17,12.3,8.36,20.18,8.36l0,0
				c7.89,0,15.01-3.19,20.18-8.36l0,0c5.17-5.17,8.36-12.29,8.36-20.18l0,0c0-7.89-3.19-15.01-8.36-20.18l0,0
				C45.01,4.65,37.89,1.45,30,1.45l0,0c-7.89,0-15.01,3.19-20.18,8.36l0,0C4.65,14.99,1.45,22.11,1.45,30l0,0
				C1.45,37.89,4.65,45.01,9.81,50.18L9.81,50.18z"/>
		</g>
	</g>
</g>
<path class="st0" d="M35.7,19.85c-0.3-2.88-2.73-5.13-5.7-5.13c-2.96,0-5.4,2.25-5.7,5.13H14.2v23.44H45.8v-0.76V19.85H35.7z
	 M30,16.23c2.13,0,3.87,1.57,4.17,3.62h-8.33C26.12,17.8,27.87,16.23,30,16.23z M44.28,41.77H15.72V21.36h28.57V41.77z M29.24,37.75
	h1.51v-5.43h5.43v-1.51h-5.43v-5.42h-1.51v5.42h-5.42v1.51h5.42V37.75z"/>
</svg>
