<?xml version="1.0" encoding="utf-8"?>
<!-- Generator: Adobe Illustrator 23.0.4, SVG Export Plug-In . SVG Version: 6.00 Build 0)  -->
<svg version="1.1" id="Layer_1" xmlns="http://www.w3.org/2000/svg" xmlns:xlink="http://www.w3.org/1999/xlink" x="0px" y="0px"
	 viewBox="0 0 60 60" style="enable-background:new 0 0 60 60;" xml:space="preserve">
<style type="text/css">
	.st0{fill:#4268B1;}
	.st1{fill:#FFFFFF;}
</style>
<g>
	<g>
		<g>
			<circle class="st0" cx="30" cy="30" r="30"/>
		</g>
	</g>
	<path class="st1" d="M49,21.2c0,0-0.1,0-0.4,0.1c-0.3,0.1-0.7,0.1-1.3,0.1c-0.8,0-1.9-0.2-2.9-0.8c-1.1-0.6-2-1.5-2.9-2.3
		c-1-0.8-2.1-1.5-3.6-1.5c-0.3,0-0.7,0-1.1,0.1c-2,0.4-3.7,2.3-5.1,4c-0.3,0.4-0.6,0.8-0.9,1.1v-2.6c1.5-0.4,2.6-1.7,2.6-3.2
		c0-1.8-1.5-3.3-3.3-3.3s-3.3,1.5-3.3,3.3c0,1.6,1.1,2.9,2.6,3.2v2.6c-0.3-0.4-0.6-0.8-0.9-1.1c-1.4-1.7-3.2-3.5-5.1-4
		c-0.4-0.1-0.7-0.1-1.1-0.1c-1.5,0-2.6,0.7-3.6,1.5c-1,0.8-1.8,1.6-2.9,2.3c-1.1,0.6-2.1,0.8-2.9,0.8c-0.5,0-0.9-0.1-1.3-0.1
		c-0.3-0.1-0.4-0.1-0.4-0.1l-1.5-0.5l0.5,1.5c0,0.1,1.2,3.6,5.3,4.1c0.3,0,0.6,0,0.9,0c3.6,0,5.7-2.5,7.6-2.7c0.2,0,0.4,0,0.6,0
		c1.1,0,2.4,0.4,3.5,0.9c0.5,0.2,1,0.5,1.3,0.6v5.8c-1-0.3-2-0.6-2.9-1c-1-0.4-2-0.8-2.6-1.1c-0.6-0.4-0.8-0.7-0.8-0.8
		c0-0.1,0-0.1,0-0.1c0-0.5,0.1-0.6,0.5-0.8c0.4-0.2,0.9-0.3,1.5-0.3c0.9,0,1.6,0.2,1.7,0.2c0.4,0.1,0.8-0.2,0.9-0.6
		s-0.2-0.8-0.6-0.9c0,0-0.9-0.2-2-0.2c-0.7,0-1.5,0.1-2.2,0.4c-0.7,0.3-1.4,1.1-1.3,2.2c0,0.1,0,0.2,0,0.3c0.2,1.3,1.2,1.9,2.4,2.5
		c1.1,0.5,2.6,1,4,1.5c-0.5,0.2-1,0.5-1.4,0.8c-0.8,0.5-1.4,1.3-1.5,2.3c0,0,0,0,0,0.1c0,1.1,0.6,2,1.4,2.6c0.6,0.4,1.2,0.8,1.9,1.1
		c-0.4,0.2-0.7,0.5-1,0.8c-0.5,0.5-0.9,1.1-0.9,1.9c0,0.1,0,0.3,0,0.5c0.1,0.9,0.7,1.5,1.3,2c0,0-0.1,0-0.1,0
		c-0.6,0.2-1.2,0.4-1.8,0.7c-0.5,0.3-1,0.8-1,1.6c0,0.1,0,0.1,0,0.2c0,1.1,0.6,1.9,1.2,2.2c0.6,0.3,1.3,0.4,1.7,0.4
		c0.2,0,0.3,0,0.3,0c0.4,0,0.8-0.4,0.7-0.8s-0.4-0.8-0.9-0.7c0,0,0,0-0.2,0c-0.2,0-0.7,0-0.9-0.2c-0.2-0.2-0.4-0.3-0.4-0.8
		c0,0,0-0.1,0-0.1c0-0.1,0.1-0.3,0.6-0.5c0.7-0.3,1.9-0.5,3.1-0.9c0.7,0.2,1.4,0.4,2.1,0.5c0.6,0.2,1.1,0.3,1.4,0.5
		c0.3,0.2,0.3,0.2,0.3,0.3c0,0,0,0.1,0,0.1c0,0.6-0.2,0.7-0.4,0.8c-0.3,0.2-0.7,0.2-0.9,0.2c-0.1,0-0.2,0-0.2,0
		c-0.4,0-0.8,0.3-0.9,0.7s0.3,0.8,0.7,0.8c0,0,0.1,0,0.3,0c0.4,0,1,0,1.7-0.4c0.7-0.3,1.3-1.1,1.2-2.2c0-0.1,0-0.1,0-0.2
		c-0.1-1-0.9-1.6-1.6-1.9c-0.4-0.2-0.9-0.3-1.3-0.4c0.6-0.5,1.2-1.1,1.3-2c0-0.2,0-0.3,0-0.4c0-1.1-0.7-1.8-1.4-2.4
		c-0.2-0.1-0.3-0.2-0.5-0.3c0.2-0.1,0.4-0.2,0.6-0.3c1.3-0.7,2.6-1.7,2.7-3.4v-0.1c-0.1-1.4-1.1-2.2-2.3-2.8
		c-0.2-0.1-0.4-0.2-0.5-0.3c0.7-0.2,1.3-0.5,2-0.7c1.1-0.4,2.1-0.8,2.9-1.3c0.8-0.5,1.5-1.1,1.6-2c0-0.1,0-0.2,0-0.3
		c0-1-0.6-1.8-1.3-2.2c-0.7-0.4-1.5-0.4-2.2-0.4c-1.1,0-2,0.2-2,0.2c-0.4,0.1-0.7,0.5-0.6,0.9s0.5,0.7,0.9,0.6l0,0
		c0,0,0.8-0.2,1.7-0.2c0.6,0,1.2,0.1,1.5,0.3c0.3,0.2,0.5,0.3,0.5,0.8c0,0,0,0.1,0,0.2c0.1,0.1-0.4,0.7-1.5,1.2
		c-1.2,0.6-3,1.1-4.7,1.7v-5.8c0.3-0.2,0.8-0.4,1.3-0.6c1-0.5,2.4-0.9,3.5-0.9c0.2,0,0.4,0,0.6,0c2,0.2,4,2.7,7.6,2.7
		c0.3,0,0.6,0,0.9,0c4.2-0.5,5.3-4,5.3-4.1l0.5-1.5L49,21.2z M24.4,22c-0.3,0-0.6,0-0.8,0.1c-2.8,0.6-4.6,2.8-7.4,2.7
		c-0.2,0-0.5,0-0.7,0c-1.6-0.2-2.6-1-3.2-1.7c0,0,0,0,0,0c0.1,0,0.3,0,0.4,0c1.1,0,2.4-0.2,3.8-1c1.3-0.8,2.2-1.7,3.1-2.4
		c0.9-0.7,1.6-1.1,2.6-1.1c0.2,0,0.5,0,0.8,0.1c1.1,0.2,2.9,1.8,4.3,3.4c0.2,0.2,0.4,0.5,0.6,0.7C26.7,22.3,25.5,22,24.4,22z
		 M28.2,16.2c0-1,0.8-1.8,1.8-1.8c1,0,1.8,0.8,1.8,1.8c0,1-0.8,1.8-1.8,1.8C29,18,28.2,17.2,28.2,16.2z M26.5,35.2
		C26.5,35.2,26.5,35.2,26.5,35.2c0-0.4,0.4-1,1.5-1.5c0.4-0.2,0.8-0.4,1.2-0.6v4.5c-0.3-0.1-0.6-0.3-0.9-0.4
		C27.1,36.5,26.5,35.9,26.5,35.2z M28.7,40.5c0.1-0.1,0.3-0.2,0.5-0.3v2.9c-0.8-0.3-1.2-0.8-1.3-1.3c0-0.1,0-0.1,0-0.2
		C27.9,41.2,28.1,40.9,28.7,40.5z M29.9,43.3C29.9,43.3,29.9,43.3,29.9,43.3l0.2,0C30.1,43.3,30.1,43.3,29.9,43.3
		C30,43.3,29.9,43.3,29.9,43.3z M32.1,41.8c-0.1,0.5-0.4,0.8-1,1.1C31,43,30.9,43,30.8,43.1v-2.9c0.4,0.2,0.7,0.4,0.9,0.6
		c0.3,0.3,0.4,0.5,0.4,0.8C32.1,41.6,32.1,41.7,32.1,41.8z M33.5,35.1C33.5,35.1,33.5,35.2,33.5,35.1c0,0.5-0.2,0.9-0.8,1.4
		c-0.5,0.4-1.1,0.7-1.9,1.1v-4.5c0.8,0.3,1.4,0.7,1.9,1C33.3,34.5,33.5,34.9,33.5,35.1z M44.5,24.7c-0.2,0-0.5,0-0.7,0
		c-2.8,0-4.6-2.1-7.4-2.7c-0.3,0-0.5-0.1-0.8-0.1c-1.1,0-2.3,0.3-3.3,0.7c0.2-0.2,0.4-0.5,0.6-0.7c1.3-1.6,3.1-3.2,4.3-3.4
		c0.3-0.1,0.5-0.1,0.8-0.1c1,0,1.7,0.4,2.6,1.1c0.9,0.7,1.8,1.6,3.1,2.4c1.3,0.8,2.7,1,3.8,1c0.2,0,0.3,0,0.5,0
		C47.2,23.7,46.2,24.5,44.5,24.7z"/>
</g>
</svg>
