<?xml version="1.0" encoding="utf-8"?>
<!-- Generator: Adobe Illustrator 23.0.4, SVG Export Plug-In . SVG Version: 6.00 Build 0)  -->
<svg version="1.1" id="Layer_1" xmlns="http://www.w3.org/2000/svg" xmlns:xlink="http://www.w3.org/1999/xlink" x="0px" y="0px"
	 viewBox="0 0 60 60" style="enable-background:new 0 0 60 60;" xml:space="preserve">
<style type="text/css">
	.st0{fill:#4268B1;}
	.st1{fill:#FFFFFF;}
</style>
<g>
	<g>
		<g>
			<circle class="st0" cx="30" cy="30" r="30"/>
		</g>
	</g>
	<g>
		<path class="st1" d="M42.3,26.9v-0.4c0-0.3,0-0.5,0-0.8c0-6.8-5.5-12.4-12.4-12.4c-0.4,0-0.7,0.3-0.7,0.7s0.3,0.7,0.7,0.7
			c6,0,10.9,4.9,10.9,10.9c0,0.2,0,0.5,0,0.7v0.4c0,1.8,1.5,4.5,2.8,6.4c0,0,0,0,0,0c0,0-0.1,0.1-0.3,0.2l-1.9,0.4
			c-0.3,0.1-0.6,0.4-0.6,0.7v5.3c0,0.8-0.6,1.4-1.4,1.4h-5.8c-2.8,0-3.4-0.9-3.5-1c-0.1-0.3-0.6-0.5-0.9-0.4
			c-0.4,0.1-0.6,0.6-0.4,0.9c0.1,0.3,0.8,1.6,4,1.8l-0.5,4c0,0.4,0.2,0.8,0.6,0.8c0,0,0.1,0,0.1,0c0.4,0,0.7-0.3,0.7-0.6l0.5-4.2
			h5.2c1.5,0,2.8-1.3,2.8-2.8v-4.7l1.4-0.3c0.7-0.2,1.1-0.5,1.3-1.1c0.2-0.4,0.1-0.9-0.2-1.3C43.2,30,42.3,28,42.3,26.9z"/>
		<path class="st1" d="M19.6,29.4c-0.1-0.4-0.5-0.6-0.9-0.4c-0.4,0.1-0.6,0.5-0.4,0.9c0.6,1.8,1.7,3.4,3.1,4.7l-1.6,12
			c0,0.4,0.2,0.8,0.6,0.8c0,0,0.1,0,0.1,0c0.4,0,0.7-0.3,0.7-0.6l1.6-12.4c0-0.2-0.1-0.5-0.2-0.6C21.3,32.6,20.2,31,19.6,29.4z"/>
		<path class="st1" d="M28.6,21.8L27.7,21c0-0.2,0.1-0.5,0.1-0.7s0-0.5,0-0.7l0.9-0.7c0.6-0.4,0.7-1.2,0.4-1.8L28.5,16
			c-0.3-0.6-1-0.9-1.7-0.7l-1.1,0.4c-0.4-0.3-0.7-0.5-1.1-0.7l-0.1-1.2c-0.1-0.7-0.6-1.2-1.3-1.3l-1.4-0.1c-0.7,0-1.3,0.4-1.4,1.1
			l-0.2,1.1c-0.4,0.2-0.8,0.4-1.1,0.6l-1.1-0.5c-0.6-0.3-1.4-0.1-1.8,0.5l-0.7,1.1c-0.4,0.6-0.3,1.4,0.3,1.8l0.9,0.8
			c0,0.2-0.1,0.4-0.1,0.7c0,0.2,0,0.5,0,0.7l-0.9,0.7c-0.6,0.4-0.7,1.2-0.4,1.8l0.6,1.2c0.3,0.6,1,0.9,1.7,0.7l1.1-0.4
			c0.4,0.3,0.7,0.5,1.1,0.7l0.1,1.2c0.1,0.7,0.6,1.2,1.3,1.3l1.4,0.1c0,0,0,0,0.1,0c0.7,0,1.2-0.5,1.4-1.1l0.2-1.1
			c0.4-0.2,0.8-0.4,1.1-0.6l1.1,0.5c0.6,0.3,1.4,0.1,1.8-0.5l0.7-1.1C29.2,23,29.1,22.2,28.6,21.8z M26.9,23.9l-1-0.5
			c-0.4-0.2-1-0.1-1.4,0.1c-0.3,0.2-0.6,0.3-0.9,0.5c-0.5,0.2-0.8,0.6-0.9,1l-0.2,1.1l-1.3-0.1L21.1,25c0-0.5-0.4-0.9-0.8-1.1
			c-0.3-0.1-0.6-0.3-0.8-0.5c-0.4-0.3-0.9-0.4-1.4-0.3L17,23.4l-0.6-1.1l0.9-0.7c0.4-0.3,0.6-0.8,0.6-1.2c0-0.2,0-0.4,0-0.5
			s0-0.4,0.1-0.5c0.1-0.5-0.1-1-0.5-1.3l-0.8-0.7l0.7-1.1l1,0.5c0.4,0.2,1,0.1,1.4-0.1c0.3-0.2,0.6-0.3,0.9-0.5
			c0.5-0.2,0.8-0.6,0.9-1.1l0.2-1.1L23,14l0.1,1.1c0,0.5,0.4,0.9,0.8,1.1c0.3,0.1,0.6,0.3,0.8,0.5c0.4,0.3,0.9,0.4,1.4,0.3l1.1-0.4
			l0.6,1.1l-0.9,0.7c-0.4,0.3-0.6,0.8-0.6,1.2c0,0.2,0,0.4,0,0.5s0,0.4-0.1,0.5c-0.1,0.5,0.1,1,0.5,1.3l0.8,0.7L26.9,23.9z"/>
		<path class="st1" d="M22.2,17.6c-1.4-0.1-2.5,1-2.6,2.3s1,2.5,2.3,2.6c0,0,0.1,0,0.1,0c1.3,0,2.4-1,2.5-2.3
			C24.6,18.9,23.6,17.7,22.2,17.6z M22.8,20.8c-0.2,0.2-0.5,0.3-0.7,0.3s-0.5-0.1-0.7-0.3s-0.3-0.5-0.3-0.7s0.1-0.5,0.3-0.7
			c0.2-0.2,0.4-0.3,0.7-0.3c0,0,0,0,0,0c0.3,0,0.5,0.1,0.7,0.3s0.3,0.5,0.3,0.7C23.1,20.4,23,20.7,22.8,20.8z"/>
	</g>
</g>
</svg>
