<?xml version="1.0" encoding="utf-8"?>
<!-- Generator: Adobe Illustrator 23.0.4, SVG Export Plug-In . SVG Version: 6.00 Build 0)  -->
<svg version="1.1" id="Layer_1" xmlns="http://www.w3.org/2000/svg" xmlns:xlink="http://www.w3.org/1999/xlink" x="0px" y="0px"
	 viewBox="0 0 60 60" style="enable-background:new 0 0 60 60;" xml:space="preserve">
<style type="text/css">
	.st0{fill:#4268B1;}
	.st1{fill:#FFFFFF;}
</style>
<g>
	<g>
		<circle class="st0" cx="30" cy="30" r="30"/>
	</g>
</g>
<path class="st1" d="M46.8,33.3c0-1.3-0.6-2-1-2.4c-0.1-0.1-0.2-0.2-0.4-0.3c-1.2-2.9-4-4.9-7.3-4.9h-0.7v5.3
	c-1.9,0.4-3.9,0.8-5.8,0.9l-1.1-3.2l-0.3-0.9l-1,0h-1c-2.4-3.9-2.8-4.6-2.8-4.7c-0.5-1-1.3-1.8-2.2-2.2c0.5-0.7,0.8-1.7,0.8-2.7
	c0-2.3-1.6-4.2-3.7-4.2h0h-0.1c-1.2,0-2.3,0.6-3,1.7c-0.3,0.4-0.5,0.9-0.7,1.6c-0.1,0.5-0.5,3.1-0.5,3.5l-0.2,1.4l1.4,0.1
	c0.1,0,0.3,0,0.7,0.1c-0.2,0.4-0.2,0.8-0.2,1.2c0,0.4,0,0.9,0,1.5c0,1,0,2.3,0,4.5c-0.8,1.7-1.6,3.5-1.6,3.5l-0.9,1.9h3.1v6.5
	c0,1.5,1,2.7,2.4,2.7c1.3,0,2.3-1,2.4-2.4c0.4,0.7,1.2,1.2,2,1.2c1.4,0,2.4-1.1,2.4-2.7c0,0,0-0.1,0-0.1l0-5.5c0-0.8-0.4-1.5-1-1.9
	l0,0l0,0l-1.3-0.9l-1.8-2.5v-0.9c0.7,1.1,1.2,1.9,1.3,2.1c0.5,0.9,1.2,1.4,2.1,1.4c0.3,0,0.6-0.1,1-0.2l1.3,3.7
	c0.4,1.3,1.5,3,2.1,3.8C31.1,39.6,31,40,31,40.5c0,1.7,1.4,3.1,3.1,3.1c1,0,1.9-0.5,2.5-1.3c0.4,0,1.2,0,1.3,0c0,0,0.9,0,1.4,0
	c0.6,0.8,1.5,1.3,2.5,1.3c1.7,0,3.1-1.4,3.1-3.1c0-0.5-0.1-0.9-0.3-1.3C45.5,37.8,46.8,35.4,46.8,33.3z M38.8,27
	c2,0.2,3.8,1.4,4.8,3c-0.1,0-0.1,0-0.2,0h0h-0.1c-0.1,0-0.2,0-0.3,0c-0.1,0-0.2,0-0.3,0h-0.1c-0.1,0-0.2,0-0.2,0l-0.1,0l-0.1,0
	l-0.1,0l-0.1,0h0l0,0c0,0-0.1,0-0.2,0h-0.1h0c0,0-0.1,0-0.1,0l-0.1,0l-0.1,0c0,0-0.1,0-0.1,0s-0.1,0-0.1,0l-0.1,0h0l-0.1,0l0,0l0,0
	c-0.2,0-0.5,0.1-0.7,0.1c0,0-0.1,0-0.1,0l-0.1,0l-0.1,0c-0.1,0-0.1,0-0.2,0c-0.1,0-0.2,0-0.2,0l0,0c0,0-0.1,0-0.1,0l-0.1,0l-0.1,0
	l0,0l0,0h0h0l0,0c-0.1,0-0.1,0-0.2,0L38.8,27L38.8,27z M17.4,20.9c0,0,0.4-2.9,0.5-3.4c0.1-0.5,0.3-0.8,0.5-1.1
	c0.4-0.7,1.1-1.1,1.9-1.1c0,0,0,0,0,0h0c0,0,0,0,0,0c1.3,0,2.4,1.3,2.4,2.9c0,1.6-1.1,2.9-2.4,2.9c0,0,0,0-0.1,0
	C19.6,21,17.4,20.9,17.4,20.9z M35.8,40.6C35.8,40.6,35.8,40.7,35.8,40.6c-0.1,0.9-0.8,1.6-1.7,1.6c-1,0-1.7-0.8-1.7-1.7
	c0-0.6,0.3-1,0.7-1.4c0,0,0.1,0,0.1-0.1h0l0,0c0,0,0.1,0,0.1-0.1c0,0,0,0,0,0c0,0,0,0,0.1,0l0,0c0,0,0,0,0,0c0,0,0.1,0,0.1,0
	c0,0,0,0,0,0c0.1,0,0.1,0,0.1,0c0,0,0,0,0,0c0,0,0,0,0.1,0s0,0,0.1,0l0,0c0.1,0,0.1,0,0.2,0c1,0,1.7,0.8,1.7,1.7
	C35.8,40.5,35.8,40.5,35.8,40.6z M41.7,42.2c-0.9,0-1.6-0.6-1.7-1.5l0,0l0,0c0,0,0,0,0-0.1c0,0,0-0.1,0-0.1c0-1,0.8-1.7,1.7-1.7
	c0,0,0.1,0,0.1,0c0,0,0,0,0,0c0,0,0,0,0,0h0h0c0,0,0.1,0,0.1,0c0,0,0,0,0,0c0,0,0.1,0,0.1,0c0,0,0,0,0,0l0,0l0,0l0,0l0,0l0,0
	c0,0,0,0,0,0c0,0,0,0,0,0h0l0,0l0.2,0.1c0,0,0,0,0,0l0,0l0,0l0,0h0c0,0,0,0,0,0c0,0,0,0,0.1,0c0,0,0.1,0,0.1,0l0.4-0.5l-0.4,0.5
	c0.4,0.3,0.6,0.8,0.6,1.3C43.5,41.4,42.7,42.2,41.7,42.2z M43.7,38l-0.4-0.2c0,0,0,0-0.1,0c0,0-0.1,0-0.1,0l0,0l0,0
	c0,0-0.1,0-0.1-0.1c0,0-0.1,0-0.1,0c0,0-0.1,0-0.1,0l0,0h0c0,0,0,0,0,0l0,0l0,0c0,0-0.1,0-0.2,0c0,0,0,0-0.1,0c-0.1,0-0.1,0-0.2,0
	c0,0-0.1,0-0.1,0c-0.1,0-0.1,0-0.1,0c-0.1,0-0.2,0-0.2,0c-1.7,0-3.1,1.4-3.1,3.1c0,0.1,0,0.2,0,0.2v0l0,0c0,0,0,0,0,0v0v0
	c0,0,0,0,0,0.1c-0.3,0-0.7,0-0.9,0c-0.1,0-0.4,0-0.7,0c0,0,0,0,0,0c0,0,0-0.1,0-0.2c0,0,0-0.1,0-0.2c0-1.7-1.4-3.1-3.1-3.1
	c-0.1,0-0.2,0-0.3,0s-0.1,0-0.1,0c0,0-0.1,0-0.2,0c0,0-0.1,0-0.2,0c0,0,0,0-0.1,0c-0.1,0-0.1,0-0.2,0.1c0,0,0,0-0.1,0
	c-0.1,0-0.1,0.1-0.2,0.1l0.1,0.3l-0.1-0.3c0,0,0,0,0,0c-0.1,0-0.2,0.1-0.2,0.1l0,0l0,0c-0.1,0-0.1,0.1-0.2,0.1c0,0,0,0,0,0l0.1,0
	c0,0-0.1,0.1-0.2,0.1c-0.7-0.9-1.5-2.2-1.7-3l-1.8-5.2h-0.9c0,0.2-0.1,0.5-0.4,0.6c-0.1,0.1-0.3,0.1-0.4,0.1c-0.4,0-0.7-0.3-0.9-0.7
	c-0.1-0.2-3.6-5.8-3.6-5.8h-0.2l0,0.5l0.7,1.1L22.1,27l0,2.8l2.2,3.1l1.5,1c0.2,0.2,0.4,0.5,0.4,0.8l0,5.5c0,0,0,0.1,0,0.1
	c0,0.8-0.4,1.3-1.1,1.3s-1.1-0.5-1.1-1.3V35l-2.3-1.1v7.4c0,0,0,0.1,0,0.1c0,0.8-0.5,1.3-1.1,1.3s-1.1-0.5-1.1-1.3v-7.9h-2.3
	c0,0,0.9-1.9,1.8-3.8c0-3.7,0-5.1,0-6.3c0-1.1,0.7-1.5,1.7-1.6c0,0,0.2,0,0.6,0c0.7,0,2,0.2,2.8,1.8c0.2,0.3,3.2,5.4,3.3,5.5h1.7
	l0,0l1.4,4.2c2.5-0.1,5.1-0.6,7.5-1.1c0.1,0,0.3-0.1,0.4-0.1c0,0,0,0,0,0c0.1,0,0.2,0,0.3-0.1c0,0,0.1,0,0.1,0c0.1,0,0.2,0,0.3,0
	c0,0,0.1,0,0.1,0c0.1,0,0.2,0,0.2,0c0,0,0.1,0,0.1,0c0.1,0,0.2,0,0.2,0c0,0,0.1,0,0.1,0c0.1,0,0.2,0,0.2,0c0,0,0.1,0,0.1,0
	c0.2,0,0.5-0.1,0.7-0.1c0,0,0.1,0,0.1,0c0.1,0,0.2,0,0.2,0c0,0,0.1,0,0.1,0c0.1,0,0.1,0,0.2,0c0,0,0.1,0,0.1,0c0.1,0,0.1,0,0.2,0
	c0,0,0.1,0,0.1,0c0.1,0,0.1,0,0.2,0c0,0,0.1,0,0.1,0c0.1,0,0.1,0,0.2,0c0,0,0.1,0,0.1,0c0.1,0,0.2,0,0.3,0c0.1,0,0.2,0,0.2,0
	c0,0,0,0,0.1,0c0.1,0,0.1,0,0.2,0c0,0,0,0,0,0c0.1,0,0.1,0,0.2,0c0,0,0.1,0,0.1,0c0,0,0.1,0,0.1,0c0,0,0.1,0,0.1,0c0,0,0.1,0,0.1,0
	c0,0,0.1,0,0.1,0c0,0,0,0,0,0c0.1,0,0.1,0,0.2,0.1c0,0,0,0,0,0c0.1,0.1,0.2,0.1,0.3,0.2l0,0c0.4,0.3,0.5,0.8,0.5,1.4
	C45.5,34.8,44.6,36.7,43.7,38z"/>
</svg>
