<?xml version="1.0" encoding="utf-8"?>
<!-- Generator: Adobe Illustrator 23.0.4, SVG Export Plug-In . SVG Version: 6.00 Build 0)  -->
<svg version="1.1" id="Layer_1" xmlns="http://www.w3.org/2000/svg" xmlns:xlink="http://www.w3.org/1999/xlink" x="0px" y="0px"
	 viewBox="0 0 60 60" style="enable-background:new 0 0 60 60;" xml:space="preserve">
<style type="text/css">
	.st0{fill:#4268B1;}
	.st1{fill:#FFFFFF;}
</style>
<g>
	<g>
		<circle class="st0" cx="30" cy="30" r="30"/>
	</g>
</g>
<path class="st1" d="M42.2,33.5c0.4-0.7,0.6-1.6,0.6-2.4c0-3.1-2.5-5.6-5.6-5.6H30c-0.8,0-1.6,0.2-2.3,0.5c0-0.1,0-0.3,0-0.5
	c0-3.4-2.8-6.1-6.1-6.1s-6.1,2.8-6.1,6.1c0,3.4,2.8,6.1,6.1,6.1c0.8,0,1.6-0.2,2.3-0.5L22,35.4c-0.8,1.9,0.1,4.1,2,4.9
	c0.5,0.2,1,0.3,1.5,0.3c1.5,0,2.9-0.9,3.4-2.3l0.7-1.7c0.1,0,0.2,0,0.4,0h2.2c0,0.1,0,0.2,0,0.3c0,1,0.4,1.9,1.1,2.6
	s1.6,1.1,2.6,1.1l5,0c2.1,0,3.7-1.7,3.7-3.7C44.7,35.3,43.6,34,42.2,33.5z M21.5,30.2c-2.6,0-4.7-2.1-4.7-4.7s2.1-4.7,4.7-4.7
	c2.6,0,4.7,2.1,4.7,4.7S24.1,30.2,21.5,30.2z M40.9,39.2l-5,0c-1.2,0-2.3-1-2.3-2.3c0,0,0,0,0,0c0-0.3,0-0.6,0.2-0.9l0.3-0.8H30
	c-0.4,0-0.9-0.1-1.2-0.2l-1.2,2.8c-0.4,0.9-1.2,1.4-2.1,1.4c-0.3,0-0.6-0.1-0.9-0.2c-1.1-0.5-1.7-1.8-1.2-3l2.7-6.4
	c0.6-1.6,2.1-2.7,3.9-2.7h7.2c2.3,0,4.1,1.9,4.1,4.1c0,1.5-0.8,2.8-2,3.5l-0.1,0.2l1.7,0c1.2,0,2.3,1,2.3,2.3
	C43.2,38.2,42.2,39.2,40.9,39.2z"/>
</svg>
