<?xml version="1.0" encoding="utf-8"?>
<!-- Generator: Adobe Illustrator 23.0.4, SVG Export Plug-In . SVG Version: 6.00 Build 0)  -->
<svg version="1.1" id="Layer_1" xmlns="http://www.w3.org/2000/svg" xmlns:xlink="http://www.w3.org/1999/xlink" x="0px" y="0px"
	 viewBox="0 0 60 60" style="enable-background:new 0 0 60 60;" xml:space="preserve">
<style type="text/css">
	.st0{fill:#4268B1;}
	.st1{fill:#FFFFFF;}
</style>
<g>
	<g>
		<circle class="st0" cx="30" cy="30" r="30"/>
	</g>
</g>
<path class="st1" d="M35.7,19.9C35.4,17,33,14.7,30,14.7c-3,0-5.4,2.3-5.7,5.1H14.2v23.4h31.6v-0.8V19.9H35.7z M30,16.2
	c2.1,0,3.9,1.6,4.2,3.6h-8.3C26.1,17.8,27.9,16.2,30,16.2z M44.3,41.8H15.7V21.4h28.6L44.3,41.8L44.3,41.8z M29.2,37.8h1.5v-5.4h5.4
	v-1.5h-5.4v-5.4h-1.5v5.4h-5.4v1.5h5.4V37.8z"/>
</svg>
